{
  "resources":{
    "includes":[
      {"pattern":"[a-zA-Z0-9+-=.,-_]*.script"},
      {"pattern":"[a-zA-Z0-9+-=.,-_]*.ini"},
      {"pattern":"[a-zA-Z0-9+-=.,-_]*.properties"},
      {"pattern":"[a-zA-Z0-9+-=.,-_]*.xml"},
      {"pattern":"[a-zA-Z0-9+-=.,-_]*.conf"},
      {"pattern":"[a-zA-Z0-9+-=.,-_]*.toml"},
      {"pattern":"[a-zA-Z0-9+-=.,-_]*.json"},
      {"pattern":"[a-zA-Z0-9+-=.,-_]*.png"},
      {"pattern":"[a-zA-Z0-9+-=.,-_]*.gif"},
      {"pattern":"\\Qapi-ms-win-core-console-l1-1-0.dll\\E"}, 
      {"pattern":"\\Qapi-ms-win-core-console-l1-2-0.dll\\E"}, 
      {"pattern":"\\Qapi-ms-win-core-datetime-l1-1-0.dll\\E"}, 
      {"pattern":"\\Qapi-ms-win-core-debug-l1-1-0.dll\\E"}, 
      {"pattern":"\\Qapi-ms-win-core-errorhandling-l1-1-0.dll\\E"}, 
      {"pattern":"\\Qapi-ms-win-core-file-l1-1-0.dll\\E"}, 
      {"pattern":"\\Qapi-ms-win-core-file-l1-2-0.dll\\E"}, 
      {"pattern":"\\Qapi-ms-win-core-file-l2-1-0.dll\\E"}, 
      {"pattern":"\\Qapi-ms-win-core-handle-l1-1-0.dll\\E"}, 
      {"pattern":"\\Qapi-ms-win-core-heap-l1-1-0.dll\\E"}, 
      {"pattern":"\\Qapi-ms-win-core-interlocked-l1-1-0.dll\\E"}, 
      {"pattern":"\\Qapi-ms-win-core-libraryloader-l1-1-0.dll\\E"}, 
      {"pattern":"\\Qapi-ms-win-core-localization-l1-2-0.dll\\E"}, 
      {"pattern":"\\Qapi-ms-win-core-memory-l1-1-0.dll\\E"}, 
      {"pattern":"\\Qapi-ms-win-core-namedpipe-l1-1-0.dll\\E"}, 
      {"pattern":"\\Qapi-ms-win-core-processenvironment-l1-1-0.dll\\E"}, 
      {"pattern":"\\Qapi-ms-win-core-processthreads-l1-1-0.dll\\E"}, 
      {"pattern":"\\Qapi-ms-win-core-processthreads-l1-1-1.dll\\E"}, 
      {"pattern":"\\Qapi-ms-win-core-profile-l1-1-0.dll\\E"}, 
      {"pattern":"\\Qapi-ms-win-core-rtlsupport-l1-1-0.dll\\E"}, 
      {"pattern":"\\Qapi-ms-win-core-string-l1-1-0.dll\\E"}, 
      {"pattern":"\\Qapi-ms-win-core-synch-l1-1-0.dll\\E"}, 
      {"pattern":"\\Qapi-ms-win-core-synch-l1-2-0.dll\\E"}, 
      {"pattern":"\\Qapi-ms-win-core-sysinfo-l1-1-0.dll\\E"}, 
      {"pattern":"\\Qapi-ms-win-core-timezone-l1-1-0.dll\\E"}, 
      {"pattern":"\\Qapi-ms-win-core-util-l1-1-0.dll\\E"}, 
      {"pattern":"\\Qapi-ms-win-crt-conio-l1-1-0.dll\\E"}, 
      {"pattern":"\\Qapi-ms-win-crt-convert-l1-1-0.dll\\E"}, 
      {"pattern":"\\Qapi-ms-win-crt-environment-l1-1-0.dll\\E"}, 
      {"pattern":"\\Qapi-ms-win-crt-filesystem-l1-1-0.dll\\E"}, 
      {"pattern":"\\Qapi-ms-win-crt-heap-l1-1-0.dll\\E"}, 
      {"pattern":"\\Qapi-ms-win-crt-locale-l1-1-0.dll\\E"}, 
      {"pattern":"\\Qapi-ms-win-crt-math-l1-1-0.dll\\E"}, 
      {"pattern":"\\Qapi-ms-win-crt-multibyte-l1-1-0.dll\\E"}, 
      {"pattern":"\\Qapi-ms-win-crt-private-l1-1-0.dll\\E"}, 
      {"pattern":"\\Qapi-ms-win-crt-process-l1-1-0.dll\\E"}, 
      {"pattern":"\\Qapi-ms-win-crt-runtime-l1-1-0.dll\\E"}, 
      {"pattern":"\\Qapi-ms-win-crt-stdio-l1-1-0.dll\\E"}, 
      {"pattern":"\\Qapi-ms-win-crt-string-l1-1-0.dll\\E"}, 
      {"pattern":"\\Qapi-ms-win-crt-time-l1-1-0.dll\\E"}, 
      {"pattern":"\\Qapi-ms-win-crt-utility-l1-1-0.dll\\E"},
      {"pattern":"\\Qcom/sun/prism/d3d/hlsl/DrawCircle_Color.obj\\E"}, 
      {"pattern":"\\Qcom/sun/prism/d3d/hlsl/FillCircle_Color.obj\\E"}, 
      {"pattern":"\\Qcom/sun/prism/d3d/hlsl/Solid_Color.obj\\E"}, 
      {"pattern":"\\Qcom/sun/prism/d3d/hlsl/Solid_TextureRGB.obj\\E"}, 
      {"pattern":"\\Qcom/sun/prism/d3d/hlsl/DrawCircle_Color.obj\\E"}, 
      {"pattern":"\\Qcom/sun/prism/d3d/hlsl/FillCircle_Color.obj\\E"}, 
      {"pattern":"\\Qcom/sun/prism/d3d/hlsl/Solid_Color.obj\\E"}, 
      {"pattern":"\\Qcom/sun/prism/d3d/hlsl/Solid_TextureRGB.obj\\E"},  
      {"pattern":"\\QMETA-INF/maven/org.fusesource.jansi/jansi/pom.properties\\E"},
      {"pattern":"\\Qorg/fusesource/jansi/internal/native/Linux/x86_64/libjansi.so\\E"},
      {"pattern":"\\Qorg/fusesource/jansi/internal/native/Windows/x86_64/jansi.dll\\E"}, 
      {"pattern":"\\Qorg/fusesource/jansi/jansi.properties\\E"},
      {"pattern":"java.datatransfer:\\Qsun/datatransfer/resources/flavormap.properties\\E"}
    ]
  },
  "bundles":[{
      "name":"sun.awt.resources.awt",
      "classNames":[
        "sun.awt.resources.awt", 
        "sun.awt.resources.awt_de"
      ]
  }]
}